%YAML 1.1
%TAG !u! tag:unity3d.com,2011:
--- !u!114 &11400000
MonoBehaviour:
  m_ObjectHideFlags: 0
  m_CorrespondingSourceObject: {fileID: 0}
  m_PrefabInstance: {fileID: 0}
  m_PrefabAsset: {fileID: 0}
  m_GameObject: {fileID: 0}
  m_Enabled: 1
  m_EditorHideFlags: 0
  m_Script: {fileID: 11500000, guid: 9d1514134bc4fbd41bb739b1b9a49231, type: 3}
  m_Name: Ground_Background
  m_EditorClassIdentifier: 
  m_DefaultSprite: {fileID: -6463163741134909319, guid: 6ca712303de134e41a8e0dfde139fcae,
    type: 3}
  m_DefaultGameObject: {fileID: 0}
  m_DefaultColliderType: 1
  m_TilingRules:
  - m_Neighbors: 0000000002000000000000000200000001000000000000000100000001000000
    m_Sprites:
    - {fileID: 3285853189007345736, guid: 6ca712303de134e41a8e0dfde139fcae, type: 3}
    m_GameObject: {fileID: 0}
    m_AnimationSpeed: 1
    m_PerlinScale: 0.5
    m_RuleTransform: 0
    m_Output: 0
    m_ColliderType: 1
    m_RandomTransform: 0
  - m_Neighbors: 0000000002000000000000000100000001000000010000000100000001000000
    m_Sprites:
    - {fileID: -2189045157046619382, guid: 6ca712303de134e41a8e0dfde139fcae, type: 3}
    m_GameObject: {fileID: 0}
    m_AnimationSpeed: 1
    m_PerlinScale: 0.5
    m_RuleTransform: 0
    m_Output: 0
    m_ColliderType: 1
    m_RandomTransform: 0
  - m_Neighbors: 0000000002000000000000000100000002000000010000000100000000000000
    m_Sprites:
    - {fileID: -5093450554309415561, guid: 6ca712303de134e41a8e0dfde139fcae, type: 3}
    m_GameObject: {fileID: 0}
    m_AnimationSpeed: 1
    m_PerlinScale: 0.5
    m_RuleTransform: 0
    m_Output: 0
    m_ColliderType: 1
    m_RandomTransform: 0
  - m_Neighbors: 0000000002000000000000000200000002000000000000000100000000000000
    m_Sprites:
    - {fileID: 7211630359532683754, guid: 6ca712303de134e41a8e0dfde139fcae, type: 3}
    m_GameObject: {fileID: 0}
    m_AnimationSpeed: 1
    m_PerlinScale: 0.5
    m_RuleTransform: 0
    m_Output: 0
    m_ColliderType: 1
    m_RandomTransform: 0
  - m_Neighbors: 0100000001000000010000000100000001000000010000000100000002000000
    m_Sprites:
    - {fileID: 6825121380983460439, guid: 6ca712303de134e41a8e0dfde139fcae, type: 3}
    m_GameObject: {fileID: 0}
    m_AnimationSpeed: 1
    m_PerlinScale: 0.5
    m_RuleTransform: 0
    m_Output: 0
    m_ColliderType: 1
    m_RandomTransform: 0
  - m_Neighbors: 0100000001000000010000000100000001000000020000000100000001000000
    m_Sprites:
    - {fileID: -6167415979541205156, guid: 6ca712303de134e41a8e0dfde139fcae, type: 3}
    m_GameObject: {fileID: 0}
    m_AnimationSpeed: 1
    m_PerlinScale: 0.5
    m_RuleTransform: 0
    m_Output: 0
    m_ColliderType: 1
    m_RandomTransform: 0
  - m_Neighbors: 0200000001000000020000000100000001000000010000000100000001000000
    m_Sprites:
    - {fileID: 1449797605410290272, guid: 6ca712303de134e41a8e0dfde139fcae, type: 3}
    m_GameObject: {fileID: 0}
    m_AnimationSpeed: 1
    m_PerlinScale: 0.5
    m_RuleTransform: 0
    m_Output: 0
    m_ColliderType: 1
    m_RandomTransform: 0
  - m_Neighbors: 0000000001000000010000000200000001000000000000000100000001000000
    m_Sprites:
    - {fileID: -5207402819331439274, guid: 6ca712303de134e41a8e0dfde139fcae, type: 3}
    m_GameObject: {fileID: 0}
    m_AnimationSpeed: 1
    m_PerlinScale: 0.5
    m_RuleTransform: 0
    m_Output: 0
    m_ColliderType: 1
    m_RandomTransform: 0
  - m_Neighbors: 0100000001000000010000000100000001000000010000000100000001000000
    m_Sprites:
    - {fileID: -1272454472547264828, guid: 6ca712303de134e41a8e0dfde139fcae, type: 3}
    m_GameObject: {fileID: 0}
    m_AnimationSpeed: 1
    m_PerlinScale: 0.5
    m_RuleTransform: 0
    m_Output: 0
    m_ColliderType: 1
    m_RandomTransform: 0
  - m_Neighbors: 0100000001000000000000000100000002000000010000000100000000000000
    m_Sprites:
    - {fileID: -5932219874314497177, guid: 6ca712303de134e41a8e0dfde139fcae, type: 3}
    m_GameObject: {fileID: 0}
    m_AnimationSpeed: 1
    m_PerlinScale: 0.5
    m_RuleTransform: 0
    m_Output: 0
    m_ColliderType: 1
    m_RandomTransform: 0
  - m_Neighbors: 0000000001000000000000000200000002000000000000000100000000000000
    m_Sprites:
    - {fileID: 6343605702663014179, guid: 6ca712303de134e41a8e0dfde139fcae, type: 3}
    m_GameObject: {fileID: 0}
    m_AnimationSpeed: 1
    m_PerlinScale: 0.5
    m_RuleTransform: 0
    m_Output: 0
    m_ColliderType: 1
    m_RandomTransform: 0
  - m_Neighbors: 0100000001000000020000000100000000000000010000000100000001000000
    m_Sprites:
    - {fileID: 4056051358072857867, guid: 6ca712303de134e41a8e0dfde139fcae, type: 3}
    m_GameObject: {fileID: 0}
    m_AnimationSpeed: 1
    m_PerlinScale: 0.5
    m_RuleTransform: 0
    m_Output: 0
    m_ColliderType: 1
    m_RandomTransform: 0
  - m_Neighbors: 0200000001000000010000000100000001000000010000000100000001000000
    m_Sprites:
    - {fileID: -2483072902988102184, guid: 6ca712303de134e41a8e0dfde139fcae, type: 3}
    m_GameObject: {fileID: 0}
    m_AnimationSpeed: 1
    m_PerlinScale: 0.5
    m_RuleTransform: 0
    m_Output: 0
    m_ColliderType: 1
    m_RandomTransform: 0
  - m_Neighbors: 0200000001000000010000000100000001000000020000000100000001000000
    m_Sprites:
    - {fileID: 8853429104530231267, guid: 6ca712303de134e41a8e0dfde139fcae, type: 3}
    m_GameObject: {fileID: 0}
    m_AnimationSpeed: 1
    m_PerlinScale: 0.5
    m_RuleTransform: 0
    m_Output: 0
    m_ColliderType: 1
    m_RandomTransform: 0
  - m_Neighbors: 0000000001000000010000000200000001000000000000000200000000000000
    m_Sprites:
    - {fileID: -6714615394610732264, guid: 6ca712303de134e41a8e0dfde139fcae, type: 3}
    m_GameObject: {fileID: 0}
    m_AnimationSpeed: 1
    m_PerlinScale: 0.5
    m_RuleTransform: 0
    m_Output: 0
    m_ColliderType: 1
    m_RandomTransform: 0
  - m_Neighbors: 0100000001000000010000000100000001000000000000000200000000000000
    m_Sprites:
    - {fileID: 2901310969954080555, guid: 6ca712303de134e41a8e0dfde139fcae, type: 3}
    m_GameObject: {fileID: 0}
    m_AnimationSpeed: 1
    m_PerlinScale: 0.5
    m_RuleTransform: 0
    m_Output: 0
    m_ColliderType: 1
    m_RandomTransform: 0
  - m_Neighbors: 0100000001000000000000000100000002000000000000000200000000000000
    m_Sprites:
    - {fileID: -2440713807394128258, guid: 6ca712303de134e41a8e0dfde139fcae, type: 3}
    m_GameObject: {fileID: 0}
    m_AnimationSpeed: 1
    m_PerlinScale: 0.5
    m_RuleTransform: 0
    m_Output: 0
    m_ColliderType: 1
    m_RandomTransform: 0
  - m_Neighbors: 0000000001000000000000000200000002000000000000000200000000000000
    m_Sprites:
    - {fileID: 5701943919934059046, guid: 6ca712303de134e41a8e0dfde139fcae, type: 3}
    m_GameObject: {fileID: 0}
    m_AnimationSpeed: 1
    m_PerlinScale: 0.5
    m_RuleTransform: 0
    m_Output: 0
    m_ColliderType: 1
    m_RandomTransform: 0
  - m_Neighbors: 0200000001000000020000000100000001000000010000000100000002000000
    m_Sprites:
    - {fileID: 437207254588455993, guid: 6ca712303de134e41a8e0dfde139fcae, type: 3}
    m_GameObject: {fileID: 0}
    m_AnimationSpeed: 1
    m_PerlinScale: 0.5
    m_RuleTransform: 0
    m_Output: 0
    m_ColliderType: 1
    m_RandomTransform: 0
  - m_Neighbors: 0200000001000000000000000100000001000000020000000100000002000000
    m_Sprites:
    - {fileID: -1177901940023575020, guid: 6ca712303de134e41a8e0dfde139fcae, type: 3}
    m_GameObject: {fileID: 0}
    m_AnimationSpeed: 1
    m_PerlinScale: 0.5
    m_RuleTransform: 0
    m_Output: 0
    m_ColliderType: 1
    m_RandomTransform: 0
  - m_Neighbors: 0100000001000000020000000100000001000000010000000100000002000000
    m_Sprites:
    - {fileID: 8188913698527536662, guid: 6ca712303de134e41a8e0dfde139fcae, type: 3}
    m_GameObject: {fileID: 0}
    m_AnimationSpeed: 1
    m_PerlinScale: 0.5
    m_RuleTransform: 0
    m_Output: 0
    m_ColliderType: 1
    m_RandomTransform: 0
  - m_Neighbors: 0000000002000000000000000200000001000000000000000200000000000000
    m_Sprites:
    - {fileID: -8989133875149852323, guid: 6ca712303de134e41a8e0dfde139fcae, type: 3}
    m_GameObject: {fileID: 0}
    m_AnimationSpeed: 1
    m_PerlinScale: 0.5
    m_RuleTransform: 0
    m_Output: 0
    m_ColliderType: 1
    m_RandomTransform: 0
  - m_Neighbors: 0000000002000000000000000100000001000000000000000200000000000000
    m_Sprites:
    - {fileID: 5416520725778250405, guid: 6ca712303de134e41a8e0dfde139fcae, type: 3}
    m_GameObject: {fileID: 0}
    m_AnimationSpeed: 1
    m_PerlinScale: 0.5
    m_RuleTransform: 0
    m_Output: 0
    m_ColliderType: 1
    m_RandomTransform: 0
  - m_Neighbors: 0000000002000000000000000100000002000000000000000200000000000000
    m_Sprites:
    - {fileID: 3182773053087103146, guid: 6ca712303de134e41a8e0dfde139fcae, type: 3}
    m_GameObject: {fileID: 0}
    m_AnimationSpeed: 1
    m_PerlinScale: 0.5
    m_RuleTransform: 0
    m_Output: 0
    m_ColliderType: 1
    m_RandomTransform: 0
  - m_Neighbors: 0000000002000000000000000200000002000000000000000200000000000000
    m_Sprites:
    - {fileID: -4657242451306114952, guid: 6ca712303de134e41a8e0dfde139fcae, type: 3}
    m_GameObject: {fileID: 0}
    m_AnimationSpeed: 1
    m_PerlinScale: 0.5
    m_RuleTransform: 0
    m_Output: 0
    m_ColliderType: 1
    m_RandomTransform: 0
  - m_Neighbors: 0100000001000000020000000100000001000000020000000100000002000000
    m_Sprites:
    - {fileID: 4221618737669548207, guid: 6ca712303de134e41a8e0dfde139fcae, type: 3}
    m_GameObject: {fileID: 0}
    m_AnimationSpeed: 1
    m_PerlinScale: 0.5
    m_RuleTransform: 0
    m_Output: 0
    m_ColliderType: 1
    m_RandomTransform: 0
  - m_Neighbors: 0200000001000000020000000100000001000000020000000100000001000000
    m_Sprites:
    - {fileID: 3230861057112759816, guid: 6ca712303de134e41a8e0dfde139fcae, type: 3}
    m_GameObject: {fileID: 0}
    m_AnimationSpeed: 1
    m_PerlinScale: 0.5
    m_RuleTransform: 0
    m_Output: 0
    m_ColliderType: 1
    m_RandomTransform: 0
  - m_Neighbors: 0100000001000000010000000100000001000000020000000100000002000000
    m_Sprites:
    - {fileID: -5127372143247154852, guid: 6ca712303de134e41a8e0dfde139fcae, type: 3}
    m_GameObject: {fileID: 0}
    m_AnimationSpeed: 1
    m_PerlinScale: 0.5
    m_RuleTransform: 0
    m_Output: 0
    m_ColliderType: 1
    m_RandomTransform: 0
  - m_Neighbors: 0000000001000000010000000200000001000000000000000100000002000000
    m_Sprites:
    - {fileID: 4997381403824202218, guid: 6ca712303de134e41a8e0dfde139fcae, type: 3}
    m_GameObject: {fileID: 0}
    m_AnimationSpeed: 1
    m_PerlinScale: 0.5
    m_RuleTransform: 0
    m_Output: 0
    m_ColliderType: 1
    m_RandomTransform: 0
  - m_Neighbors: 0100000001000000000000000100000002000000020000000100000000000000
    m_Sprites:
    - {fileID: 8368369575576856090, guid: 6ca712303de134e41a8e0dfde139fcae, type: 3}
    m_GameObject: {fileID: 0}
    m_AnimationSpeed: 1
    m_PerlinScale: 0.5
    m_RuleTransform: 0
    m_Output: 0
    m_ColliderType: 1
    m_RandomTransform: 0
  - m_Neighbors: 0000000002000000000000000100000001000000010000000100000002000000
    m_Sprites:
    - {fileID: 4369513488636974542, guid: 6ca712303de134e41a8e0dfde139fcae, type: 3}
    m_GameObject: {fileID: 0}
    m_AnimationSpeed: 1
    m_PerlinScale: 0.5
    m_RuleTransform: 0
    m_Output: 0
    m_ColliderType: 1
    m_RandomTransform: 0
  - m_Neighbors: 0000000002000000000000000100000001000000020000000100000001000000
    m_Sprites:
    - {fileID: -7864877091129877629, guid: 6ca712303de134e41a8e0dfde139fcae, type: 3}
    m_GameObject: {fileID: 0}
    m_AnimationSpeed: 1
    m_PerlinScale: 0.5
    m_RuleTransform: 0
    m_Output: 0
    m_ColliderType: 1
    m_RandomTransform: 0
  - m_Neighbors: 0000000002000000000000000200000001000000000000000100000002000000
    m_Sprites:
    - {fileID: -6239721453069327456, guid: 6ca712303de134e41a8e0dfde139fcae, type: 3}
    m_GameObject: {fileID: 0}
    m_AnimationSpeed: 1
    m_PerlinScale: 0.5
    m_RuleTransform: 0
    m_Output: 0
    m_ColliderType: 1
    m_RandomTransform: 0
  - m_Neighbors: 0000000002000000000000000100000001000000020000000100000002000000
    m_Sprites:
    - {fileID: 7237256534646723532, guid: 6ca712303de134e41a8e0dfde139fcae, type: 3}
    m_GameObject: {fileID: 0}
    m_AnimationSpeed: 1
    m_PerlinScale: 0.5
    m_RuleTransform: 0
    m_Output: 0
    m_ColliderType: 1
    m_RandomTransform: 0
  - m_Neighbors: 0000000002000000000000000100000002000000020000000100000000000000
    m_Sprites:
    - {fileID: 662395674507626437, guid: 6ca712303de134e41a8e0dfde139fcae, type: 3}
    m_GameObject: {fileID: 0}
    m_AnimationSpeed: 1
    m_PerlinScale: 0.5
    m_RuleTransform: 0
    m_Output: 0
    m_ColliderType: 1
    m_RandomTransform: 0
  - m_Neighbors: 0000000001000000020000000200000001000000000000000100000001000000
    m_Sprites:
    - {fileID: -8483896111754112553, guid: 6ca712303de134e41a8e0dfde139fcae, type: 3}
    m_GameObject: {fileID: 0}
    m_AnimationSpeed: 1
    m_PerlinScale: 0.5
    m_RuleTransform: 0
    m_Output: 0
    m_ColliderType: 1
    m_RandomTransform: 0
  - m_Neighbors: 0200000001000000000000000100000002000000010000000100000000000000
    m_Sprites:
    - {fileID: -5180555927202768669, guid: 6ca712303de134e41a8e0dfde139fcae, type: 3}
    m_GameObject: {fileID: 0}
    m_AnimationSpeed: 1
    m_PerlinScale: 0.5
    m_RuleTransform: 0
    m_Output: 0
    m_ColliderType: 1
    m_RandomTransform: 0
  - m_Neighbors: 0100000001000000020000000100000001000000000000000200000000000000
    m_Sprites:
    - {fileID: -8041848017812762356, guid: 6ca712303de134e41a8e0dfde139fcae, type: 3}
    m_GameObject: {fileID: 0}
    m_AnimationSpeed: 1
    m_PerlinScale: 0.5
    m_RuleTransform: 0
    m_Output: 0
    m_ColliderType: 1
    m_RandomTransform: 0
  - m_Neighbors: 0200000001000000010000000100000001000000000000000200000000000000
    m_Sprites:
    - {fileID: 1312955762360381315, guid: 6ca712303de134e41a8e0dfde139fcae, type: 3}
    m_GameObject: {fileID: 0}
    m_AnimationSpeed: 1
    m_PerlinScale: 0.5
    m_RuleTransform: 0
    m_Output: 0
    m_ColliderType: 1
    m_RandomTransform: 0
  - m_Neighbors: 0000000001000000020000000200000001000000000000000100000002000000
    m_Sprites:
    - {fileID: 7192024523866345643, guid: 6ca712303de134e41a8e0dfde139fcae, type: 3}
    m_GameObject: {fileID: 0}
    m_AnimationSpeed: 1
    m_PerlinScale: 0.5
    m_RuleTransform: 0
    m_Output: 0
    m_ColliderType: 1
    m_RandomTransform: 0
  - m_Neighbors: 0200000001000000020000000100000001000000020000000100000002000000
    m_Sprites:
    - {fileID: -8175119949992750383, guid: 6ca712303de134e41a8e0dfde139fcae, type: 3}
    m_GameObject: {fileID: 0}
    m_AnimationSpeed: 1
    m_PerlinScale: 0.5
    m_RuleTransform: 0
    m_Output: 0
    m_ColliderType: 1
    m_RandomTransform: 0
  - m_Neighbors: 0200000001000000000000000100000002000000020000000100000000000000
    m_Sprites:
    - {fileID: 8596299612045360616, guid: 6ca712303de134e41a8e0dfde139fcae, type: 3}
    m_GameObject: {fileID: 0}
    m_AnimationSpeed: 1
    m_PerlinScale: 0.5
    m_RuleTransform: 0
    m_Output: 0
    m_ColliderType: 1
    m_RandomTransform: 0
  - m_Neighbors: 0100000001000000020000000100000001000000020000000100000001000000
    m_Sprites:
    - {fileID: -310948780521384084, guid: 6ca712303de134e41a8e0dfde139fcae, type: 3}
    m_GameObject: {fileID: 0}
    m_AnimationSpeed: 1
    m_PerlinScale: 0.5
    m_RuleTransform: 0
    m_Output: 0
    m_ColliderType: 1
    m_RandomTransform: 0
  - m_Neighbors: 0200000001000000010000000100000001000000010000000100000002000000
    m_Sprites:
    - {fileID: -6762057759282608625, guid: 6ca712303de134e41a8e0dfde139fcae, type: 3}
    m_GameObject: {fileID: 0}
    m_AnimationSpeed: 1
    m_PerlinScale: 0.5
    m_RuleTransform: 0
    m_Output: 0
    m_ColliderType: 1
    m_RandomTransform: 0
  - m_Neighbors: 0000000001000000020000000200000001000000000000000200000000000000
    m_Sprites:
    - {fileID: 3370666925630060431, guid: 6ca712303de134e41a8e0dfde139fcae, type: 3}
    m_GameObject: {fileID: 0}
    m_AnimationSpeed: 1
    m_PerlinScale: 0.5
    m_RuleTransform: 0
    m_Output: 0
    m_ColliderType: 1
    m_RandomTransform: 0
  - m_Neighbors: 0200000001000000020000000100000001000000000000000200000000000000
    m_Sprites:
    - {fileID: -7519242047688570886, guid: 6ca712303de134e41a8e0dfde139fcae, type: 3}
    m_GameObject: {fileID: 0}
    m_AnimationSpeed: 1
    m_PerlinScale: 0.5
    m_RuleTransform: 0
    m_Output: 0
    m_ColliderType: 1
    m_RandomTransform: 0
  - m_Neighbors: 0200000001000000000000000100000001000000000000000100000000000000
    m_Sprites:
    - {fileID: -3619751135440255071, guid: 6ca712303de134e41a8e0dfde139fcae, type: 3}
    m_GameObject: {fileID: 0}
    m_AnimationSpeed: 1
    m_PerlinScale: 0.5
    m_RuleTransform: 0
    m_Output: 0
    m_ColliderType: 1
    m_RandomTransform: 0
