%YAML 1.1
%TAG !u! tag:unity3d.com,2011:
--- !u!74 &7400000
AnimationClip:
  m_ObjectHideFlags: 0
  m_CorrespondingSourceObject: {fileID: 0}
  m_PrefabInstance: {fileID: 0}
  m_PrefabAsset: {fileID: 0}
  m_Name: Fox 1
  serializedVersion: 6
  m_Legacy: 0
  m_Compressed: 0
  m_UseHighQualityCurve: 1
  m_RotationCurves: []
  m_CompressedRotationCurves: []
  m_EulerCurves: []
  m_PositionCurves: []
  m_ScaleCurves: []
  m_FloatCurves: []
  m_PPtrCurves:
  - curve:
    - time: 0
      value: {fileID: 3177971344085394984, guid: b536b7f468cc1ef4dacdf2ea8da4f918,
        type: 3}
    - time: 0.083333336
      value: {fileID: 4632441555898085975, guid: b536b7f468cc1ef4dacdf2ea8da4f918,
        type: 3}
    - time: 0.16666667
      value: {fileID: 5379788955935397799, guid: b536b7f468cc1ef4dacdf2ea8da4f918,
        type: 3}
    - time: 0.25
      value: {fileID: -8757056180875710649, guid: b536b7f468cc1ef4dacdf2ea8da4f918,
        type: 3}
    - time: 0.33333334
      value: {fileID: 6197536273015773261, guid: b536b7f468cc1ef4dacdf2ea8da4f918,
        type: 3}
    - time: 0.41666666
      value: {fileID: -8969290117939765490, guid: b536b7f468cc1ef4dacdf2ea8da4f918,
        type: 3}
    - time: 0.5
      value: {fileID: 2050479714926129339, guid: b536b7f468cc1ef4dacdf2ea8da4f918,
        type: 3}
    - time: 0.5833333
      value: {fileID: -7848193827868498677, guid: b536b7f468cc1ef4dacdf2ea8da4f918,
        type: 3}
    - time: 0.6666667
      value: {fileID: 3283496845600025775, guid: b536b7f468cc1ef4dacdf2ea8da4f918,
        type: 3}
    - time: 0.75
      value: {fileID: 8413631529828886792, guid: b536b7f468cc1ef4dacdf2ea8da4f918,
        type: 3}
    attribute: m_Sprite
    path: 
    classID: 212
    script: {fileID: 0}
  m_SampleRate: 60
  m_WrapMode: 0
  m_Bounds:
    m_Center: {x: 0, y: 0, z: 0}
    m_Extent: {x: 0, y: 0, z: 0}
  m_ClipBindingConstant:
    genericBindings:
    - serializedVersion: 2
      path: 0
      attribute: 0
      script: {fileID: 0}
      typeID: 212
      customType: 23
      isPPtrCurve: 1
    pptrCurveMapping:
    - {fileID: 3177971344085394984, guid: b536b7f468cc1ef4dacdf2ea8da4f918, type: 3}
    - {fileID: 4632441555898085975, guid: b536b7f468cc1ef4dacdf2ea8da4f918, type: 3}
    - {fileID: 5379788955935397799, guid: b536b7f468cc1ef4dacdf2ea8da4f918, type: 3}
    - {fileID: -8757056180875710649, guid: b536b7f468cc1ef4dacdf2ea8da4f918, type: 3}
    - {fileID: 6197536273015773261, guid: b536b7f468cc1ef4dacdf2ea8da4f918, type: 3}
    - {fileID: -8969290117939765490, guid: b536b7f468cc1ef4dacdf2ea8da4f918, type: 3}
    - {fileID: 2050479714926129339, guid: b536b7f468cc1ef4dacdf2ea8da4f918, type: 3}
    - {fileID: -7848193827868498677, guid: b536b7f468cc1ef4dacdf2ea8da4f918, type: 3}
    - {fileID: 3283496845600025775, guid: b536b7f468cc1ef4dacdf2ea8da4f918, type: 3}
    - {fileID: 8413631529828886792, guid: b536b7f468cc1ef4dacdf2ea8da4f918, type: 3}
  m_AnimationClipSettings:
    serializedVersion: 2
    m_AdditiveReferencePoseClip: {fileID: 0}
    m_AdditiveReferencePoseTime: 0
    m_StartTime: 0
    m_StopTime: 0.76666665
    m_OrientationOffsetY: 0
    m_Level: 0
    m_CycleOffset: 0
    m_HasAdditiveReferencePose: 0
    m_LoopTime: 1
    m_LoopBlend: 0
    m_LoopBlendOrientation: 0
    m_LoopBlendPositionY: 0
    m_LoopBlendPositionXZ: 0
    m_KeepOriginalOrientation: 0
    m_KeepOriginalPositionY: 1
    m_KeepOriginalPositionXZ: 0
    m_HeightFromFeet: 0
    m_Mirror: 0
  m_EditorCurves: []
  m_EulerEditorCurves: []
  m_HasGenericRootTransform: 0
  m_HasMotionFloatCurves: 0
  m_Events: []
