%YAML 1.1
%TAG !u! tag:unity3d.com,2011:
--- !u!60 &-2561990356582253956
PolygonCollider2D:
  m_ObjectHideFlags: 0
  m_CorrespondingSourceObject: {fileID: 0}
  m_PrefabInstance: {fileID: 0}
  m_PrefabAsset: {fileID: 0}
  m_GameObject: {fileID: 988503043690875238}
  m_Enabled: 1
  m_Density: 1
  m_Material: {fileID: 0}
  m_IsTrigger: 1
  m_UsedByEffector: 0
  m_UsedByComposite: 0
  m_Offset: {x: 0, y: 0}
  m_SpriteTilingProperty:
    border: {x: 0, y: 0, z: 0, w: 0}
    pivot: {x: 0.5, y: 0.5}
    oldSize: {x: 1.05, y: 3.49}
    newSize: {x: 8.4, y: 4.77}
    adaptiveTilingThreshold: 0.5
    drawMode: 0
    adaptiveTiling: 0
  m_AutoTiling: 0
  m_Points:
    m_Paths:
    - - {x: 0.24499999, y: -0.515}
      - {x: 0.255, y: -0.42499998}
      - {x: 0.305, y: -0.355}
      - {x: 0.39499998, y: -0.035}
      - {x: 0.445, y: 0.21499999}
      - {x: 0.445, y: 0.305}
      - {x: 0.39499998, y: 0.375}
      - {x: 0.39499998, y: 0.565}
      - {x: 0.355, y: 0.745}
      - {x: 0.275, y: 0.91499996}
      - {x: 0.225, y: 1.045}
      - {x: 0.185, y: 1.2149999}
      - {x: 0.13499999, y: 1.355}
      - {x: 0.035, y: 1.605}
      - {x: -0.044999998, y: 1.665}
      - {x: -0.085, y: 1.665}
      - {x: -0.13499999, y: 1.525}
      - {x: -0.185, y: 1.105}
      - {x: -0.24499999, y: 1.0749999}
      - {x: -0.265, y: 1.165}
      - {x: -0.325, y: 1.245}
      - {x: -0.39499998, y: 1.2149999}
      - {x: -0.405, y: 1.0749999}
      - {x: -0.435, y: 0.895}
      - {x: -0.435, y: -0.24499999}
      - {x: -0.405, y: -0.415}
      - {x: -0.385, y: -0.635}
      - {x: -0.285, y: -0.815}
      - {x: -0.225, y: -0.965}
      - {x: -0.205, y: -0.995}
      - {x: -0.175, y: -1.2049999}
      - {x: -0.13499999, y: -1.245}
      - {x: -0.114999995, y: -1.3349999}
      - {x: -0.065, y: -1.4649999}
      - {x: -0.024999999, y: -1.535}
      - {x: 0.044999998, y: -1.535}
      - {x: 0.095, y: -1.425}
      - {x: 0.095, y: -1.275}
      - {x: 0.175, y: -0.935}
--- !u!1001 &3006119579587184448
PrefabInstance:
  m_ObjectHideFlags: 0
  serializedVersion: 2
  m_Modification:
    m_TransformParent: {fileID: 0}
    m_Modifications:
    - target: {fileID: 2594143287957933606, guid: 1b029c0ae4ed3f743862f73e62e9726b,
        type: 3}
      propertyPath: m_Name
      value: Spikes_Floating_2
      objectReference: {fileID: 0}
    - target: {fileID: 3665426627915942426, guid: 1b029c0ae4ed3f743862f73e62e9726b,
        type: 3}
      propertyPath: m_SpriteTilingProperty.oldSize.x
      value: 1.05
      objectReference: {fileID: 0}
    - target: {fileID: 3665426627915942426, guid: 1b029c0ae4ed3f743862f73e62e9726b,
        type: 3}
      propertyPath: m_SpriteTilingProperty.oldSize.y
      value: 3.49
      objectReference: {fileID: 0}
    - target: {fileID: 3665426627915942426, guid: 1b029c0ae4ed3f743862f73e62e9726b,
        type: 3}
      propertyPath: m_Size.x
      value: 1
      objectReference: {fileID: 0}
    - target: {fileID: 3665426627915942426, guid: 1b029c0ae4ed3f743862f73e62e9726b,
        type: 3}
      propertyPath: m_Size.y
      value: 3.3
      objectReference: {fileID: 0}
    - target: {fileID: 6690542172985165311, guid: 1b029c0ae4ed3f743862f73e62e9726b,
        type: 3}
      propertyPath: m_Sprite
      value: 
      objectReference: {fileID: 21300000, guid: 76c74b7a5815e2441b4ddb0c0a5edeba,
        type: 3}
    - target: {fileID: 8951797101120833242, guid: 1b029c0ae4ed3f743862f73e62e9726b,
        type: 3}
      propertyPath: m_LocalPosition.x
      value: 142.86757
      objectReference: {fileID: 0}
    - target: {fileID: 8951797101120833242, guid: 1b029c0ae4ed3f743862f73e62e9726b,
        type: 3}
      propertyPath: m_LocalPosition.y
      value: -6.0763183
      objectReference: {fileID: 0}
    - target: {fileID: 8951797101120833242, guid: 1b029c0ae4ed3f743862f73e62e9726b,
        type: 3}
      propertyPath: m_LocalPosition.z
      value: -1.5761719
      objectReference: {fileID: 0}
    - target: {fileID: 8951797101120833242, guid: 1b029c0ae4ed3f743862f73e62e9726b,
        type: 3}
      propertyPath: m_LocalRotation.x
      value: 0
      objectReference: {fileID: 0}
    - target: {fileID: 8951797101120833242, guid: 1b029c0ae4ed3f743862f73e62e9726b,
        type: 3}
      propertyPath: m_LocalRotation.y
      value: 0
      objectReference: {fileID: 0}
    - target: {fileID: 8951797101120833242, guid: 1b029c0ae4ed3f743862f73e62e9726b,
        type: 3}
      propertyPath: m_LocalRotation.z
      value: 0
      objectReference: {fileID: 0}
    - target: {fileID: 8951797101120833242, guid: 1b029c0ae4ed3f743862f73e62e9726b,
        type: 3}
      propertyPath: m_LocalRotation.w
      value: 1
      objectReference: {fileID: 0}
    - target: {fileID: 8951797101120833242, guid: 1b029c0ae4ed3f743862f73e62e9726b,
        type: 3}
      propertyPath: m_RootOrder
      value: 0
      objectReference: {fileID: 0}
    - target: {fileID: 8951797101120833242, guid: 1b029c0ae4ed3f743862f73e62e9726b,
        type: 3}
      propertyPath: m_LocalEulerAnglesHint.x
      value: 0
      objectReference: {fileID: 0}
    - target: {fileID: 8951797101120833242, guid: 1b029c0ae4ed3f743862f73e62e9726b,
        type: 3}
      propertyPath: m_LocalEulerAnglesHint.y
      value: 0
      objectReference: {fileID: 0}
    - target: {fileID: 8951797101120833242, guid: 1b029c0ae4ed3f743862f73e62e9726b,
        type: 3}
      propertyPath: m_LocalEulerAnglesHint.z
      value: 0
      objectReference: {fileID: 0}
    m_RemovedComponents:
    - {fileID: -4736658097521832431, guid: 1b029c0ae4ed3f743862f73e62e9726b, type: 3}
    - {fileID: 3665426627915942426, guid: 1b029c0ae4ed3f743862f73e62e9726b, type: 3}
  m_SourcePrefab: {fileID: 100100000, guid: 1b029c0ae4ed3f743862f73e62e9726b, type: 3}
--- !u!1 &988503043690875238 stripped
GameObject:
  m_CorrespondingSourceObject: {fileID: 2594143287957933606, guid: 1b029c0ae4ed3f743862f73e62e9726b,
    type: 3}
  m_PrefabInstance: {fileID: 3006119579587184448}
  m_PrefabAsset: {fileID: 0}
