%YAML 1.1
%TAG !u! tag:unity3d.com,2011:
--- !u!60 &-4736658097521832431
PolygonCollider2D:
  m_ObjectHideFlags: 0
  m_CorrespondingSourceObject: {fileID: 0}
  m_PrefabInstance: {fileID: 0}
  m_PrefabAsset: {fileID: 0}
  m_GameObject: {fileID: 2594143287957933606}
  m_Enabled: 1
  m_Density: 1
  m_Material: {fileID: 0}
  m_IsTrigger: 1
  m_UsedByEffector: 0
  m_UsedByComposite: 0
  m_Offset: {x: 0, y: 0}
  m_SpriteTilingProperty:
    border: {x: 0, y: 0, z: 0, w: 0}
    pivot: {x: 0.5, y: 0.5}
    oldSize: {x: 1.75, y: 4.04}
    newSize: {x: 8.4, y: 4.77}
    adaptiveTilingThreshold: 0.5
    drawMode: 0
    adaptiveTiling: 0
  m_AutoTiling: 0
  m_Points:
    m_Paths:
    - - {x: 0.155, y: -1.1}
      - {x: 0.275, y: -0.88}
      - {x: 0.355, y: -0.88}
      - {x: 0.445, y: -0.78}
      - {x: 0.465, y: -0.29}
      - {x: 0.49499997, y: -0.07}
      - {x: 0.565, y: -0.19999999}
      - {x: 0.675, y: -0.21}
      - {x: 0.715, y: -0.12}
      - {x: 0.73499995, y: 0.06}
      - {x: 0.73499995, y: 0.48}
      - {x: 0.695, y: 0.55}
      - {x: 0.655, y: 0.59}
      - {x: 0.635, y: 0.78}
      - {x: 0.585, y: 0.79999995}
      - {x: 0.585, y: 0.96999997}
      - {x: 0.565, y: 1.09}
      - {x: 0.525, y: 1.25}
      - {x: 0.505, y: 1.27}
      - {x: 0.405, y: 1.25}
      - {x: 0.375, y: 1.0699999}
      - {x: 0.315, y: 0.91999996}
      - {x: 0.235, y: 1.05}
      - {x: 0.235, y: 1.15}
      - {x: 0.185, y: 1.1999999}
      - {x: 0.125, y: 1.37}
      - {x: 0.095, y: 1.51}
      - {x: 0.074999996, y: 1.64}
      - {x: 0.044999998, y: 1.8299999}
      - {x: -0.015, y: 1.87}
      - {x: -0.074999996, y: 1.87}
      - {x: -0.125, y: 1.76}
      - {x: -0.21499999, y: 1.39}
      - {x: -0.36499998, y: 1.1}
      - {x: -0.445, y: 0.89}
      - {x: -0.48499998, y: 1}
      - {x: -0.575, y: 1.0699999}
      - {x: -0.625, y: 0.95}
      - {x: -0.655, y: 0.83}
      - {x: -0.705, y: 0.56}
      - {x: -0.72499996, y: 0.38}
      - {x: -0.72499996, y: -0.089999996}
      - {x: -0.705, y: -0.32999998}
      - {x: -0.695, y: -0.35999998}
      - {x: -0.525, y: -0.34}
      - {x: -0.45499998, y: -0.45}
      - {x: -0.435, y: -0.56}
      - {x: -0.385, y: -0.71}
      - {x: -0.295, y: -1.0799999}
      - {x: -0.235, y: -1.2099999}
      - {x: -0.225, y: -1.3399999}
      - {x: -0.175, y: -1.4699999}
      - {x: -0.13499999, y: -1.5999999}
      - {x: -0.114999995, y: -1.76}
      - {x: -0.074999996, y: -1.8}
      - {x: -0.005, y: -1.8}
      - {x: 0.044999998, y: -1.7099999}
      - {x: 0.085, y: -1.36}
      - {x: 0.13499999, y: -1.3}
--- !u!1001 &2105630997018339213
PrefabInstance:
  m_ObjectHideFlags: 0
  serializedVersion: 2
  m_Modification:
    m_TransformParent: {fileID: 0}
    m_Modifications:
    - target: {fileID: 3451589261435104663, guid: a1814ef99e1a8ea49a208fd92760a61e,
        type: 3}
      propertyPath: m_SpriteTilingProperty.oldSize.x
      value: 1.75
      objectReference: {fileID: 0}
    - target: {fileID: 3451589261435104663, guid: a1814ef99e1a8ea49a208fd92760a61e,
        type: 3}
      propertyPath: m_SpriteTilingProperty.oldSize.y
      value: 4.04
      objectReference: {fileID: 0}
    - target: {fileID: 3451589261435104663, guid: a1814ef99e1a8ea49a208fd92760a61e,
        type: 3}
      propertyPath: m_Size.x
      value: 1.5
      objectReference: {fileID: 0}
    - target: {fileID: 3451589261435104663, guid: a1814ef99e1a8ea49a208fd92760a61e,
        type: 3}
      propertyPath: m_Size.y
      value: 3.8
      objectReference: {fileID: 0}
    - target: {fileID: 3451589261435104663, guid: a1814ef99e1a8ea49a208fd92760a61e,
        type: 3}
      propertyPath: m_Enabled
      value: 0
      objectReference: {fileID: 0}
    - target: {fileID: 4123199043170347435, guid: a1814ef99e1a8ea49a208fd92760a61e,
        type: 3}
      propertyPath: m_Name
      value: Spikes_Floating_1
      objectReference: {fileID: 0}
    - target: {fileID: 4747111305789923954, guid: a1814ef99e1a8ea49a208fd92760a61e,
        type: 3}
      propertyPath: m_Sprite
      value: 
      objectReference: {fileID: 21300000, guid: 6b88d33f9ea8e9c4aa28a176f26e4428,
        type: 3}
    - target: {fileID: 4747111305789923954, guid: a1814ef99e1a8ea49a208fd92760a61e,
        type: 3}
      propertyPath: m_Color.r
      value: 0.59607846
      objectReference: {fileID: 0}
    - target: {fileID: 4747111305789923954, guid: a1814ef99e1a8ea49a208fd92760a61e,
        type: 3}
      propertyPath: m_Color.g
      value: 0.46666667
      objectReference: {fileID: 0}
    - target: {fileID: 4747111305789923954, guid: a1814ef99e1a8ea49a208fd92760a61e,
        type: 3}
      propertyPath: m_Color.b
      value: 0.50980395
      objectReference: {fileID: 0}
    - target: {fileID: 4747111305789923954, guid: a1814ef99e1a8ea49a208fd92760a61e,
        type: 3}
      propertyPath: m_WasSpriteAssigned
      value: 1
      objectReference: {fileID: 0}
    - target: {fileID: 6990598398885339479, guid: a1814ef99e1a8ea49a208fd92760a61e,
        type: 3}
      propertyPath: m_LocalPosition.x
      value: 134.68
      objectReference: {fileID: 0}
    - target: {fileID: 6990598398885339479, guid: a1814ef99e1a8ea49a208fd92760a61e,
        type: 3}
      propertyPath: m_LocalPosition.y
      value: -5.8
      objectReference: {fileID: 0}
    - target: {fileID: 6990598398885339479, guid: a1814ef99e1a8ea49a208fd92760a61e,
        type: 3}
      propertyPath: m_LocalPosition.z
      value: -1.5761719
      objectReference: {fileID: 0}
    - target: {fileID: 6990598398885339479, guid: a1814ef99e1a8ea49a208fd92760a61e,
        type: 3}
      propertyPath: m_LocalRotation.x
      value: 0
      objectReference: {fileID: 0}
    - target: {fileID: 6990598398885339479, guid: a1814ef99e1a8ea49a208fd92760a61e,
        type: 3}
      propertyPath: m_LocalRotation.y
      value: 0
      objectReference: {fileID: 0}
    - target: {fileID: 6990598398885339479, guid: a1814ef99e1a8ea49a208fd92760a61e,
        type: 3}
      propertyPath: m_LocalRotation.z
      value: 0
      objectReference: {fileID: 0}
    - target: {fileID: 6990598398885339479, guid: a1814ef99e1a8ea49a208fd92760a61e,
        type: 3}
      propertyPath: m_LocalRotation.w
      value: 1
      objectReference: {fileID: 0}
    - target: {fileID: 6990598398885339479, guid: a1814ef99e1a8ea49a208fd92760a61e,
        type: 3}
      propertyPath: m_RootOrder
      value: 0
      objectReference: {fileID: 0}
    - target: {fileID: 6990598398885339479, guid: a1814ef99e1a8ea49a208fd92760a61e,
        type: 3}
      propertyPath: m_LocalEulerAnglesHint.x
      value: 0
      objectReference: {fileID: 0}
    - target: {fileID: 6990598398885339479, guid: a1814ef99e1a8ea49a208fd92760a61e,
        type: 3}
      propertyPath: m_LocalEulerAnglesHint.y
      value: 0
      objectReference: {fileID: 0}
    - target: {fileID: 6990598398885339479, guid: a1814ef99e1a8ea49a208fd92760a61e,
        type: 3}
      propertyPath: m_LocalEulerAnglesHint.z
      value: 0
      objectReference: {fileID: 0}
    - target: {fileID: 6990598398885339479, guid: a1814ef99e1a8ea49a208fd92760a61e,
        type: 3}
      propertyPath: m_LocalScale.x
      value: 1
      objectReference: {fileID: 0}
    - target: {fileID: 6990598398885339479, guid: a1814ef99e1a8ea49a208fd92760a61e,
        type: 3}
      propertyPath: m_LocalScale.y
      value: 1
      objectReference: {fileID: 0}
    m_RemovedComponents:
    - {fileID: 3451589261435104663, guid: a1814ef99e1a8ea49a208fd92760a61e, type: 3}
  m_SourcePrefab: {fileID: 100100000, guid: a1814ef99e1a8ea49a208fd92760a61e, type: 3}
--- !u!1 &2594143287957933606 stripped
GameObject:
  m_CorrespondingSourceObject: {fileID: 4123199043170347435, guid: a1814ef99e1a8ea49a208fd92760a61e,
    type: 3}
  m_PrefabInstance: {fileID: 2105630997018339213}
  m_PrefabAsset: {fileID: 0}
